…
Data Preprocessing
------------------

In data processing part, we create a sparse matrix using the tidy data method. Stopwords were removed, but stemming and/or lemmatization were not applied as they didn't seem to improve model's performance.

``` r
tidy_allpost <- PostDataframe %>%
  unnest_tokens(word, Body) %>%
  anti_join(stop_words)

tidy_allpost %>%
  count(word, sort = TRUE)
```

    ## # A tibble: 169,511 x 2
    ##    word          n
    ##    <chr>     <int>
    ##  1 company   60115
    ##  2 job       51454
    ##  3 time      49053
    ##  4 people    37469
    ##  5 manager   25332
    ##  6 boss      21921
    ##  7 team      21300
    ##  8 person    18526
    ##  9 interview 16101
    ## 10 position  16071
    ## # ... with 169,501 more rows
…
